<?xml version="1.0" encoding="utf-8"?>
<!-- Generator: Adobe Illustrator 22.1.0, SVG Export Plug-In . SVG Version: 6.00 Build 0)  -->
<svg version="1.1" id="Layer_1" xmlns="http://www.w3.org/2000/svg" xmlns:xlink="http://www.w3.org/1999/xlink" x="0px" y="0px"
	 viewBox="0 0 159.7 159.7" style="enable-background:new 0 0 159.7 159.7;" xml:space="preserve">
<style type="text/css">
	.st0{fill:#FFFFFF;}
	.st1{clip-path:url(#SVGID_2_);}
</style>
<ellipse class="st0" cx="79.9" cy="79.9" rx="74.9" ry="72.3"/>
<g>
	<g>
		<g>
			<g id="Layer_2_1_">
				<defs>
					<path id="SVGID_1_" d="M79.7,73.9l16.1,24.6l-6.7,9.3L80.4,98l-8.8,9.8l-7.2-10.2l-0.4,0.3L79.7,73.9z M81.9,32h21l-8.6,9
						l8.6,9h-21V32z M76.9,28v40.4l-12.7,19l-8.3-12.9L28,117.6l4.1,2.3l23.8-36.9l5.5,8.5l-25.2,37.8l4,2.4L60.7,101l9.8,13.5
						l9.4-10.3l9.3,10.3l9.1-12.6l19.9,29.9l4-2.3L97.7,92.6l6.2-9.6l23.8,36.9l4.1-2.3l0,0L104,74.5l-9,14l-13.4-20V54.8H113
						l-12.7-13.4L113,28L76.9,28z"/>
				</defs>
				<use xlink:href="#SVGID_1_"  style="overflow:visible;fill:#0A6534;"/>
				<clipPath id="SVGID_2_">
					<use xlink:href="#SVGID_1_"  style="overflow:visible;"/>
				</clipPath>
				<g id="Layer_1-2" class="st1">
					<g>
						<defs>
							<rect id="SVGID_3_" x="-668.9" y="-753.8" width="1499.6" height="2691.6"/>
						</defs>
						<use xlink:href="#SVGID_3_"  style="overflow:visible;fill:#0A6534;"/>
						<clipPath id="SVGID_4_">
							<use xlink:href="#SVGID_3_"  style="overflow:visible;"/>
						</clipPath>
					</g>
				</g>
			</g>
		</g>
	</g>
</g>
<title>Asset 1</title>
</svg>
